// EVU Sperre: 
// 143.4: on
// 143.5: off
Shelly.call("Switch.set", {'id': 0, 'on': true});
Shelly.call("Switch.set", {'id': 1, 'on': false});
Shelly.call('Script.Stop', {id: Shelly.getCurrentScriptId()});
